%TF.GenerationSoftware,KiCad,Pcbnew,6.0.0+dfsg1-2*%
%TF.CreationDate,2022-01-17T03:45:44+01:00*%
%TF.ProjectId,untitled,756e7469-746c-4656-942e-6b696361645f,rev?*%
%TF.SameCoordinates,Original*%
%TF.FileFunction,Copper,L1,Top*%
%TF.FilePolarity,Positive*%
%FSLAX46Y46*%
G04 Gerber Fmt 4.6, Leading zero omitted, Abs format (unit mm)*
G04 Created by KiCad (PCBNEW 6.0.0+dfsg1-2) date 2022-01-17 03:45:44*
%MOMM*%
%LPD*%
G01*
G04 APERTURE LIST*
G04 Aperture macros list*
%AMRoundRect*
0 Rectangle with rounded corners*
0 $1 Rounding radius*
0 $2 $3 $4 $5 $6 $7 $8 $9 X,Y pos of 4 corners*
0 Add a 4 corners polygon primitive as box body*
4,1,4,$2,$3,$4,$5,$6,$7,$8,$9,$2,$3,0*
0 Add four circle primitives for the rounded corners*
1,1,$1+$1,$2,$3*
1,1,$1+$1,$4,$5*
1,1,$1+$1,$6,$7*
1,1,$1+$1,$8,$9*
0 Add four rect primitives between the rounded corners*
20,1,$1+$1,$2,$3,$4,$5,0*
20,1,$1+$1,$4,$5,$6,$7,0*
20,1,$1+$1,$6,$7,$8,$9,0*
20,1,$1+$1,$8,$9,$2,$3,0*%
G04 Aperture macros list end*
%TA.AperFunction,ComponentPad*%
%ADD10O,2.400000X1.600000*%
%TD*%
%TA.AperFunction,ComponentPad*%
%ADD11R,2.400000X1.600000*%
%TD*%
%TA.AperFunction,ComponentPad*%
%ADD12O,1.600000X1.600000*%
%TD*%
%TA.AperFunction,ComponentPad*%
%ADD13R,1.600000X1.600000*%
%TD*%
%TA.AperFunction,ComponentPad*%
%ADD14C,1.524000*%
%TD*%
%TA.AperFunction,ComponentPad*%
%ADD15C,2.000000*%
%TD*%
%TA.AperFunction,ComponentPad*%
%ADD16O,1.700000X1.700000*%
%TD*%
%TA.AperFunction,ComponentPad*%
%ADD17R,1.700000X1.700000*%
%TD*%
%TA.AperFunction,ComponentPad*%
%ADD18RoundRect,0.250000X-0.600000X-0.725000X0.600000X-0.725000X0.600000X0.725000X-0.600000X0.725000X0*%
%TD*%
%TA.AperFunction,ComponentPad*%
%ADD19O,1.700000X1.950000*%
%TD*%
%TA.AperFunction,ComponentPad*%
%ADD20RoundRect,0.250000X0.725000X-0.600000X0.725000X0.600000X-0.725000X0.600000X-0.725000X-0.600000X0*%
%TD*%
%TA.AperFunction,ComponentPad*%
%ADD21O,1.950000X1.700000*%
%TD*%
%TA.AperFunction,SMDPad,CuDef*%
%ADD22RoundRect,0.250000X-0.262500X-0.450000X0.262500X-0.450000X0.262500X0.450000X-0.262500X0.450000X0*%
%TD*%
%TA.AperFunction,SMDPad,CuDef*%
%ADD23RoundRect,0.250000X0.262500X0.450000X-0.262500X0.450000X-0.262500X-0.450000X0.262500X-0.450000X0*%
%TD*%
%TA.AperFunction,ComponentPad*%
%ADD24RoundRect,0.250000X-0.750000X0.600000X-0.750000X-0.600000X0.750000X-0.600000X0.750000X0.600000X0*%
%TD*%
%TA.AperFunction,ComponentPad*%
%ADD25O,2.000000X1.700000*%
%TD*%
%TA.AperFunction,ViaPad*%
%ADD26C,0.800000*%
%TD*%
%TA.AperFunction,ViaPad*%
%ADD27C,0.400000*%
%TD*%
%TA.AperFunction,Conductor*%
%ADD28C,0.750000*%
%TD*%
G04 APERTURE END LIST*
D10*
%TO.P,U4,14,VDD*%
%TO.N,+5V*%
X175290000Y-118467500D03*
%TO.P,U4,7,VSS*%
%TO.N,GND*%
X182910000Y-103227500D03*
%TO.P,U4,13*%
X175290000Y-115927500D03*
%TO.P,U4,6*%
%TO.N,Net-(U3-Pad7)*%
X182910000Y-105767500D03*
%TO.P,U4,12*%
%TO.N,GND*%
X175290000Y-113387500D03*
%TO.P,U4,5*%
%TO.N,Net-(U3-Pad7)*%
X182910000Y-108307500D03*
%TO.P,U4,11*%
%TO.N,unconnected-(U4-Pad11)*%
X175290000Y-110847500D03*
%TO.P,U4,4*%
%TO.N,Net-(R11-Pad2)*%
X182910000Y-110847500D03*
%TO.P,U4,10*%
%TO.N,Net-(R12-Pad2)*%
X175290000Y-108307500D03*
%TO.P,U4,3*%
%TO.N,Net-(R13-Pad2)*%
X182910000Y-113387500D03*
%TO.P,U4,9*%
X175290000Y-105767500D03*
%TO.P,U4,2*%
%TO.N,Net-(U3-Pad8)*%
X182910000Y-115927500D03*
%TO.P,U4,8*%
%TO.N,Net-(R11-Pad2)*%
X175290000Y-103227500D03*
D11*
%TO.P,U4,1*%
%TO.N,Net-(U3-Pad8)*%
X182910000Y-118467500D03*
%TD*%
D10*
%TO.P,U3,14*%
%TO.N,u3_14*%
X182880000Y-79097500D03*
%TO.P,U3,7*%
%TO.N,Net-(U3-Pad7)*%
X175260000Y-94337500D03*
%TO.P,U3,13,-*%
%TO.N,S-*%
X182880000Y-81637500D03*
%TO.P,U3,6,-*%
%TO.N,Net-(R7-Pad2)*%
X175260000Y-91797500D03*
%TO.P,U3,12,+*%
%TO.N,S+*%
X182880000Y-84177500D03*
%TO.P,U3,5,+*%
%TO.N,u3_14*%
X175260000Y-89257500D03*
%TO.P,U3,11,V-*%
%TO.N,REF*%
X182880000Y-86717500D03*
%TO.P,U3,4,V+*%
%TO.N,+5V*%
X175260000Y-86717500D03*
%TO.P,U3,10,+*%
%TO.N,u3_1*%
X182880000Y-89257500D03*
%TO.P,U3,3,+*%
%TO.N,Net-(RV1-Pad2)*%
X175260000Y-84177500D03*
%TO.P,U3,9,-*%
%TO.N,Net-(R10-Pad1)*%
X182880000Y-91797500D03*
%TO.P,U3,2,-*%
%TO.N,u3_1*%
X175260000Y-81637500D03*
%TO.P,U3,8*%
%TO.N,Net-(U3-Pad8)*%
X182880000Y-94337500D03*
D11*
%TO.P,U3,1*%
%TO.N,u3_1*%
X175260000Y-79097500D03*
%TD*%
D12*
%TO.P,U2,18,LED2*%
%TO.N,Net-(D5-Pad2)*%
X142250000Y-79087500D03*
%TO.P,U2,9,MODE*%
%TO.N,+5V*%
X162570000Y-86707500D03*
%TO.P,U2,17,LED3*%
%TO.N,Net-(D6-Pad2)*%
X144790000Y-79087500D03*
%TO.P,U2,8,REFADJ*%
%TO.N,REF*%
X160030000Y-86707500D03*
%TO.P,U2,16,LED4*%
%TO.N,Net-(D7-Pad2)*%
X147330000Y-79087500D03*
%TO.P,U2,7,REFOUT*%
%TO.N,RHI*%
X157490000Y-86707500D03*
%TO.P,U2,15,LED5*%
%TO.N,Net-(D8-Pad2)*%
X149870000Y-79087500D03*
%TO.P,U2,6,RHI*%
%TO.N,RHI*%
X154950000Y-86707500D03*
%TO.P,U2,14,LED6*%
%TO.N,Net-(D9-Pad2)*%
X152410000Y-79087500D03*
%TO.P,U2,5,SIGIN*%
%TO.N,u3_14*%
X152410000Y-86707500D03*
%TO.P,U2,13,LED7*%
%TO.N,Net-(D10-Pad2)*%
X154950000Y-79087500D03*
%TO.P,U2,4,RLO*%
%TO.N,RLO*%
X149870000Y-86707500D03*
%TO.P,U2,12,LED8*%
%TO.N,Net-(D11-Pad2)*%
X157490000Y-79087500D03*
%TO.P,U2,3,V+*%
%TO.N,+5V*%
X147330000Y-86707500D03*
%TO.P,U2,11,LED9*%
%TO.N,Net-(D12-Pad2)*%
X160030000Y-79087500D03*
%TO.P,U2,2,V-*%
%TO.N,REF*%
X144790000Y-86707500D03*
%TO.P,U2,10,LED10*%
%TO.N,Net-(D13-Pad2)*%
X162570000Y-79087500D03*
D13*
%TO.P,U2,1,LED1*%
%TO.N,Net-(D4-Pad2)*%
X142250000Y-86707500D03*
%TD*%
D14*
%TO.P,U1,1,+Vin*%
%TO.N,Net-(SW1-Pad3)*%
X108035000Y-101515000D03*
%TO.P,U1,11,common*%
%TO.N,GND*%
X133145000Y-101365000D03*
%TO.P,U1,13,-Vout*%
%TO.N,REF*%
X135685000Y-116605000D03*
%TO.P,U1,15,+Vout*%
%TO.N,+5V*%
X130605000Y-116665000D03*
%TO.P,U1,23,-vin(gnd)*%
%TO.N,GND*%
X110305000Y-116705000D03*
%TO.P,U1,24,INgnd*%
X107765000Y-116705000D03*
%TD*%
D15*
%TO.P,TP2,1,1*%
%TO.N,REF*%
X193040000Y-94337500D03*
%TD*%
%TO.P,TP1,1,1*%
%TO.N,+5V*%
X163830000Y-112117500D03*
%TD*%
D16*
%TO.P,SW1,3,C*%
%TO.N,Net-(SW1-Pad3)*%
X101300000Y-101942500D03*
%TO.P,SW1,2,B*%
%TO.N,Net-(J1-Pad1)*%
X101300000Y-104482500D03*
D17*
%TO.P,SW1,1,A*%
%TO.N,unconnected-(SW1-Pad1)*%
X101300000Y-107022500D03*
%TD*%
D18*
%TO.P,RV3,1,1*%
%TO.N,Net-(R15-Pad1)*%
X154980000Y-104197500D03*
D19*
%TO.P,RV3,2,2*%
%TO.N,RLO*%
X157480000Y-104197500D03*
%TO.P,RV3,3,3*%
%TO.N,Net-(R16-Pad2)*%
X159980000Y-104197500D03*
%TD*%
D18*
%TO.P,RV2,1,1*%
%TO.N,Net-(R14-Pad1)*%
X154980000Y-96577500D03*
D19*
%TO.P,RV2,2,2*%
%TO.N,REF*%
X157480000Y-96577500D03*
%TO.P,RV2,3,3*%
X159980000Y-96577500D03*
%TD*%
D20*
%TO.P,RV1,1,1*%
%TO.N,Net-(R5-Pad1)*%
X168910000Y-86637500D03*
D21*
%TO.P,RV1,2,2*%
%TO.N,Net-(RV1-Pad2)*%
X168910000Y-84137500D03*
%TO.P,RV1,3,3*%
%TO.N,Net-(R6-Pad1)*%
X168910000Y-81637500D03*
%TD*%
D22*
%TO.P,R10,2*%
%TO.N,GND*%
X189230000Y-91797500D03*
%TO.P,R10,1*%
%TO.N,Net-(R10-Pad1)*%
X187405000Y-91797500D03*
%TD*%
D23*
%TO.P,R8,2*%
%TO.N,GND*%
X167997500Y-98147500D03*
%TO.P,R8,1*%
%TO.N,Net-(R7-Pad2)*%
X169822500Y-98147500D03*
%TD*%
%TO.P,R7,2*%
%TO.N,Net-(R7-Pad2)*%
X172720000Y-98147500D03*
%TO.P,R7,1*%
%TO.N,u3_1*%
X174545000Y-98147500D03*
%TD*%
D22*
%TO.P,R3,1*%
%TO.N,S+*%
X187405000Y-89257500D03*
%TO.P,R3,2*%
%TO.N,GND*%
X189230000Y-89257500D03*
%TD*%
%TO.P,R2,1*%
%TO.N,S+*%
X187405000Y-86717500D03*
%TO.P,R2,2*%
%TO.N,Net-(J2-Pad2)*%
X189230000Y-86717500D03*
%TD*%
%TO.P,R1,1*%
%TO.N,S-*%
X187405000Y-84177500D03*
%TO.P,R1,2*%
%TO.N,Net-(J2-Pad4)*%
X189230000Y-84177500D03*
%TD*%
D16*
%TO.P,J2,4,Pin_4*%
%TO.N,Net-(J2-Pad4)*%
X193040000Y-80367500D03*
%TO.P,J2,3,Pin_3*%
%TO.N,+5V*%
X193040000Y-82907500D03*
%TO.P,J2,2,Pin_2*%
%TO.N,Net-(J2-Pad2)*%
X193040000Y-85447500D03*
D17*
%TO.P,J2,1,Pin_1*%
%TO.N,REF*%
X193040000Y-87987500D03*
%TD*%
D24*
%TO.P,J1,1,Pin_1*%
%TO.N,Net-(J1-Pad1)*%
X101600000Y-113372500D03*
D25*
%TO.P,J1,2,Pin_2*%
%TO.N,GND*%
X101600000Y-115872500D03*
%TD*%
D16*
%TO.P,D13,2,A*%
%TO.N,Net-(D13-Pad2)*%
X135890000Y-89257500D03*
D17*
%TO.P,D13,1,K*%
%TO.N,+5V*%
X135890000Y-91797500D03*
%TD*%
D16*
%TO.P,D12,2,A*%
%TO.N,Net-(D12-Pad2)*%
X132080000Y-89247500D03*
D17*
%TO.P,D12,1,K*%
%TO.N,+5V*%
X132080000Y-91787500D03*
%TD*%
%TO.P,D11,1,K*%
%TO.N,+5V*%
X128270000Y-91787500D03*
D16*
%TO.P,D11,2,A*%
%TO.N,Net-(D11-Pad2)*%
X128270000Y-89247500D03*
%TD*%
%TO.P,D10,2,A*%
%TO.N,Net-(D10-Pad2)*%
X124460000Y-89257500D03*
D17*
%TO.P,D10,1,K*%
%TO.N,+5V*%
X124460000Y-91797500D03*
%TD*%
%TO.P,D9,1,K*%
%TO.N,+5V*%
X120650000Y-91787500D03*
D16*
%TO.P,D9,2,A*%
%TO.N,Net-(D9-Pad2)*%
X120650000Y-89247500D03*
%TD*%
D17*
%TO.P,D8,1,K*%
%TO.N,+5V*%
X116840000Y-91787500D03*
D16*
%TO.P,D8,2,A*%
%TO.N,Net-(D8-Pad2)*%
X116840000Y-89247500D03*
%TD*%
D17*
%TO.P,D7,1,K*%
%TO.N,+5V*%
X113030000Y-91787500D03*
D16*
%TO.P,D7,2,A*%
%TO.N,Net-(D7-Pad2)*%
X113030000Y-89247500D03*
%TD*%
%TO.P,D6,2,A*%
%TO.N,Net-(D6-Pad2)*%
X109220000Y-89247500D03*
D17*
%TO.P,D6,1,K*%
%TO.N,+5V*%
X109220000Y-91787500D03*
%TD*%
%TO.P,D5,1,K*%
%TO.N,+5V*%
X105410000Y-91787500D03*
D16*
%TO.P,D5,2,A*%
%TO.N,Net-(D5-Pad2)*%
X105410000Y-89247500D03*
%TD*%
%TO.P,D4,2,A*%
%TO.N,Net-(D4-Pad2)*%
X101600000Y-89247500D03*
D17*
%TO.P,D4,1,K*%
%TO.N,+5V*%
X101600000Y-91787500D03*
%TD*%
%TO.P,D3,1,K*%
%TO.N,REF*%
X187960000Y-99417500D03*
D16*
%TO.P,D3,2,A*%
%TO.N,Net-(D3-Pad2)*%
X187960000Y-101957500D03*
%TD*%
D17*
%TO.P,D2,1,K*%
%TO.N,REF*%
X191770000Y-99417500D03*
D16*
%TO.P,D2,2,A*%
%TO.N,Net-(D2-Pad2)*%
X191770000Y-101957500D03*
%TD*%
D17*
%TO.P,D1,1,K*%
%TO.N,REF*%
X195580000Y-99417500D03*
D16*
%TO.P,D1,2,A*%
%TO.N,Net-(D1-Pad2)*%
X195580000Y-101957500D03*
%TD*%
D26*
%TO.N,GND*%
X168910000Y-107950000D03*
X171450000Y-114300000D03*
%TO.N,REF*%
X180340000Y-87630000D03*
X184150000Y-96520000D03*
%TO.N,S+*%
X185420000Y-85090000D03*
%TO.N,GND*%
X182880000Y-101600000D03*
D27*
%TO.N,u3_14*%
X177800000Y-91440000D03*
X176530000Y-96520000D03*
X153670000Y-93980000D03*
X176530000Y-100330000D03*
%TO.N,REF*%
X142240000Y-90170000D03*
%TO.N,+5V*%
X172720000Y-81280000D03*
%TO.N,Net-(J2-Pad2)*%
X190500000Y-86360000D03*
%TO.N,Net-(J2-Pad4)*%
X190500000Y-82550000D03*
%TO.N,S-*%
X186690000Y-82550000D03*
%TO.N,Net-(U3-Pad7)*%
X184150000Y-99060000D03*
X180340000Y-97790000D03*
%TO.N,GND*%
X189230000Y-93980000D03*
%TO.N,Net-(R10-Pad1)*%
X185420000Y-91440000D03*
%TO.N,Net-(R7-Pad2)*%
X172720000Y-92710000D03*
%TO.N,REF*%
X142240000Y-113030000D03*
X160020000Y-100330000D03*
%TO.N,GND*%
X166370000Y-97790000D03*
%TO.N,+5V*%
X172720000Y-87630000D03*
%TO.N,Net-(R6-Pad1)*%
X165100000Y-90170000D03*
X165100000Y-83820000D03*
%TO.N,+5V*%
X162560000Y-90170000D03*
X144780000Y-91440000D03*
%TO.N,Net-(D4-Pad2)*%
X139700000Y-86360000D03*
X104140000Y-85090000D03*
%TO.N,Net-(D5-Pad2)*%
X114300000Y-78740000D03*
X138430000Y-78740000D03*
%TO.N,Net-(D6-Pad2)*%
X143510000Y-76200000D03*
X121920000Y-76200000D03*
%TO.N,Net-(D7-Pad2)*%
X127000000Y-74930000D03*
X147320000Y-76200000D03*
%TO.N,Net-(D8-Pad2)*%
X132080000Y-73660000D03*
X149860000Y-76200000D03*
%TO.N,Net-(D9-Pad2)*%
X138430000Y-72390000D03*
X152400000Y-76200000D03*
%TO.N,Net-(U3-Pad8)*%
X180340000Y-115570000D03*
X180340000Y-100330000D03*
%TO.N,Net-(R13-Pad2)*%
X187960000Y-113030000D03*
X187960000Y-109220000D03*
%TO.N,Net-(R12-Pad2)*%
X177800000Y-109220000D03*
X191770000Y-107950000D03*
%TO.N,u3_1*%
X179070000Y-90170000D03*
X177800000Y-78740000D03*
%TD*%
D28*
%TO.N,GND*%
X168910000Y-107950000D02*
X171450000Y-110490000D01*
X171450000Y-110490000D02*
X171450000Y-114300000D01*
%TO.N,REF*%
X180340000Y-95250000D02*
X181610000Y-96520000D01*
X180340000Y-87630000D02*
X180340000Y-95250000D01*
X181610000Y-96520000D02*
X184150000Y-96520000D01*
%TO.N,S+*%
X187405000Y-88345000D02*
X187405000Y-86717500D01*
X187405000Y-87075000D02*
X187405000Y-88345000D01*
X187405000Y-89257500D02*
X187405000Y-88345000D01*
X185420000Y-85090000D02*
X187405000Y-87075000D01*
%TO.N,GND*%
X185420000Y-100330000D02*
X185420000Y-96520000D01*
X187960000Y-93980000D02*
X189230000Y-93980000D01*
X182880000Y-101600000D02*
X184150000Y-101600000D01*
X184150000Y-101600000D02*
X185420000Y-100330000D01*
X185420000Y-96520000D02*
X187960000Y-93980000D01*
%TO.N,u3_14*%
X177800000Y-95250000D02*
X177800000Y-91440000D01*
X176530000Y-96520000D02*
X177800000Y-95250000D01*
X153670000Y-93980000D02*
X162560000Y-93980000D01*
X173990000Y-100330000D02*
X176530000Y-100330000D01*
X166370000Y-101600000D02*
X172720000Y-101600000D01*
X165100000Y-96520000D02*
X165100000Y-100330000D01*
X165100000Y-100330000D02*
X166370000Y-101600000D01*
X162560000Y-93980000D02*
X165100000Y-96520000D01*
X172720000Y-101600000D02*
X173990000Y-100330000D01*
%TO.N,REF*%
X142240000Y-93980000D02*
X142240000Y-90170000D01*
X148590000Y-100330000D02*
X142240000Y-93980000D01*
%TO.N,+5V*%
X172720000Y-81280000D02*
X172720000Y-87630000D01*
%TO.N,Net-(J2-Pad2)*%
X190142500Y-86717500D02*
X190500000Y-86360000D01*
X189230000Y-86717500D02*
X190142500Y-86717500D01*
%TO.N,Net-(J2-Pad4)*%
X189230000Y-83820000D02*
X190500000Y-82550000D01*
X189230000Y-84177500D02*
X189230000Y-83820000D01*
%TO.N,S-*%
X186690000Y-82550000D02*
X186690000Y-83462500D01*
X186690000Y-83462500D02*
X187405000Y-84177500D01*
%TO.N,Net-(U3-Pad7)*%
X184150000Y-99060000D02*
X181610000Y-99060000D01*
X181610000Y-99060000D02*
X180340000Y-97790000D01*
%TO.N,GND*%
X189230000Y-91797500D02*
X189230000Y-93980000D01*
X189230000Y-91797500D02*
X189230000Y-89257500D01*
%TO.N,Net-(R10-Pad1)*%
X185777500Y-91797500D02*
X185420000Y-91440000D01*
X187405000Y-91797500D02*
X185777500Y-91797500D01*
%TO.N,Net-(R7-Pad2)*%
X172720000Y-98147500D02*
X172720000Y-92710000D01*
%TO.N,u3_1*%
X174545000Y-98147500D02*
X177442500Y-98147500D01*
X177442500Y-98147500D02*
X179070000Y-96520000D01*
X179070000Y-96520000D02*
X179070000Y-90170000D01*
%TO.N,Net-(R7-Pad2)*%
X172720000Y-98147500D02*
X169822500Y-98147500D01*
%TO.N,REF*%
X160020000Y-100330000D02*
X148590000Y-100330000D01*
X148590000Y-100330000D02*
X142240000Y-106680000D01*
X142240000Y-106680000D02*
X142240000Y-113030000D01*
%TO.N,GND*%
X166727500Y-98147500D02*
X166370000Y-97790000D01*
X167997500Y-98147500D02*
X166727500Y-98147500D01*
%TO.N,+5V*%
X172720000Y-87630000D02*
X167640000Y-92710000D01*
X167640000Y-92710000D02*
X165100000Y-92710000D01*
X165100000Y-92710000D02*
X162560000Y-90170000D01*
%TO.N,Net-(R6-Pad1)*%
X165100000Y-83820000D02*
X165100000Y-90170000D01*
%TO.N,+5V*%
X161290000Y-91440000D02*
X162560000Y-90170000D01*
X160020000Y-91440000D02*
X161290000Y-91440000D01*
X144780000Y-91440000D02*
X160020000Y-91440000D01*
%TO.N,Net-(D4-Pad2)*%
X138430000Y-85090000D02*
X139700000Y-86360000D01*
X104140000Y-85090000D02*
X138430000Y-85090000D01*
%TO.N,Net-(D5-Pad2)*%
X138430000Y-78740000D02*
X114300000Y-78740000D01*
%TO.N,Net-(D6-Pad2)*%
X121920000Y-76200000D02*
X143510000Y-76200000D01*
%TO.N,Net-(D7-Pad2)*%
X146050000Y-74930000D02*
X127000000Y-74930000D01*
X147320000Y-76200000D02*
X146050000Y-74930000D01*
%TO.N,Net-(D8-Pad2)*%
X148590000Y-73660000D02*
X132080000Y-73660000D01*
X149860000Y-76200000D02*
X149860000Y-74930000D01*
X149860000Y-74930000D02*
X148590000Y-73660000D01*
%TO.N,Net-(D9-Pad2)*%
X149860000Y-72390000D02*
X152400000Y-74930000D01*
X152400000Y-74930000D02*
X152400000Y-76200000D01*
X138430000Y-72390000D02*
X149860000Y-72390000D01*
%TO.N,Net-(U3-Pad8)*%
X180340000Y-100330000D02*
X180340000Y-115570000D01*
%TO.N,Net-(R13-Pad2)*%
X187960000Y-109220000D02*
X187960000Y-113030000D01*
%TO.N,Net-(R12-Pad2)*%
X191770000Y-116840000D02*
X191770000Y-107950000D01*
X177800000Y-119380000D02*
X179070000Y-120650000D01*
X177800000Y-109220000D02*
X177800000Y-119380000D01*
X187960000Y-120650000D02*
X191770000Y-116840000D01*
X179070000Y-120650000D02*
X187960000Y-120650000D01*
%TO.N,u3_1*%
X179070000Y-80010000D02*
X177800000Y-78740000D01*
X179070000Y-90170000D02*
X179070000Y-80010000D01*
%TD*%
M02*
