EESchema Schematic File Version 4
EELAYER 30 0
EELAYER END
$Descr A4 11693 8268
encoding utf-8
Sheet 1 1
Title "atmospheric barometer"
Date "2021-11-05"
Rev "0.0.0"
Comp "MIT licence"
Comment1 "https://gitlab.com/goblinrieur/barometer"
Comment2 "goblinrieur@gmail.com"
Comment3 ""
Comment4 ""
$EndDescr
$Comp
L Connector:Conn_01x02_Male J1
U 1 1 61858272
P 750 1500
F 0 "J1" H 858 1681 50  0000 C CNN
F 1 "Power_in" H 858 1590 50  0000 C CNN
F 2 "Connector_JST:JST_EH_B2B-EH-A_1x02_P2.50mm_Vertical" H 750 1500 50  0001 C CNN
F 3 "~" H 750 1500 50  0001 C CNN
	1    750  1500
	1    0    0    -1  
$EndComp
$Comp
L Switch:SW_SPDT SW1
U 1 1 61858FA9
P 1650 1400
F 0 "SW1" H 1650 1685 50  0000 C CNN
F 1 "OFF_ON" H 1650 1594 50  0000 C CNN
F 2 "Connector_PinHeader_2.54mm:PinHeader_1x03_P2.54mm_Vertical" H 1650 1400 50  0001 C CNN
F 3 "~" H 1650 1400 50  0001 C CNN
	1    1650 1400
	1    0    0    -1  
$EndComp
NoConn ~ 1850 1300
$Comp
L PERSO:DCDC_sym_5v_THM10-0521 U1
U 1 1 6185AB52
P 3000 1300
F 0 "U1" H 3000 1325 50  0000 C CNN
F 1 "DCDC_sym_5v_THM10-0521" H 3000 1234 50  0000 C CNN
F 2 "PERSO:thm10-0521" H 3000 1300 50  0001 C CNN
F 3 "" H 3000 1300 50  0001 C CNN
	1    3000 1300
	1    0    0    -1  
$EndComp
$Comp
L power:GND #PWR01
U 1 1 6185B6A0
P 1450 2000
F 0 "#PWR01" H 1450 1750 50  0001 C CNN
F 1 "GND" H 1455 1827 50  0000 C CNN
F 2 "" H 1450 2000 50  0001 C CNN
F 3 "" H 1450 2000 50  0001 C CNN
	1    1450 2000
	1    0    0    -1  
$EndComp
Wire Wire Line
	2450 1700 2350 1700
Wire Wire Line
	2350 1700 2350 1750
Wire Wire Line
	2350 1800 2450 1800
Wire Wire Line
	2350 1750 1450 1750
Wire Wire Line
	1450 1750 1450 1900
Connection ~ 2350 1750
Wire Wire Line
	2350 1750 2350 1800
Wire Wire Line
	1450 1750 1050 1750
Wire Wire Line
	1050 1750 1050 1600
Wire Wire Line
	1050 1600 950  1600
Connection ~ 1450 1750
Wire Wire Line
	950  1500 1050 1500
Wire Wire Line
	1050 1500 1050 1400
Wire Wire Line
	1050 1400 1450 1400
Wire Wire Line
	1850 1500 2450 1500
Wire Wire Line
	2450 1600 2350 1600
Wire Wire Line
	2350 1600 2350 1700
Connection ~ 2350 1700
$Comp
L Connector:TestPoint TP1
U 1 1 6185C6E2
P 3950 1000
F 0 "TP1" H 4008 1118 50  0000 L CNN
F 1 "TestPoint" H 4008 1027 50  0000 L CNN
F 2 "Connector_Pin:Pin_D1.0mm_L10.0mm" H 4150 1000 50  0001 C CNN
F 3 "~" H 4150 1000 50  0001 C CNN
	1    3950 1000
	1    0    0    -1  
$EndComp
$Comp
L Connector:TestPoint TP2
U 1 1 6185CC11
P 3950 2000
F 0 "TP2" H 3892 2026 50  0000 R CNN
F 1 "TestPoint" H 3892 2117 50  0000 R CNN
F 2 "Connector_Pin:Pin_D1.0mm_L10.0mm" H 4150 2000 50  0001 C CNN
F 3 "~" H 4150 2000 50  0001 C CNN
	1    3950 2000
	-1   0    0    1   
$EndComp
Wire Wire Line
	3950 1000 3950 1050
Wire Wire Line
	3950 1500 3550 1500
Wire Wire Line
	3550 1600 3950 1600
Wire Wire Line
	3950 1600 3950 1950
$Comp
L power:+5V #PWR02
U 1 1 6185D8FF
P 4450 1000
F 0 "#PWR02" H 4450 850 50  0001 C CNN
F 1 "+5V" H 4465 1173 50  0000 C CNN
F 2 "" H 4450 1000 50  0001 C CNN
F 3 "" H 4450 1000 50  0001 C CNN
	1    4450 1000
	1    0    0    -1  
$EndComp
Wire Wire Line
	4450 1000 4450 1150
Wire Wire Line
	4450 1500 3950 1500
Connection ~ 3950 1500
$Comp
L power:-5V #PWR03
U 1 1 6185E463
P 4450 2000
F 0 "#PWR03" H 4450 2100 50  0001 C CNN
F 1 "-5V" H 4465 2173 50  0000 C CNN
F 2 "" H 4450 2000 50  0001 C CNN
F 3 "" H 4450 2000 50  0001 C CNN
	1    4450 2000
	-1   0    0    1   
$EndComp
Wire Wire Line
	4450 2000 4450 1850
Wire Wire Line
	4450 1600 3950 1600
Connection ~ 3950 1600
$Comp
L Connector:Conn_01x04_Female J2
U 1 1 6185F09A
P 8000 1600
F 0 "J2" H 7892 1175 50  0000 C CNN
F 1 "CPT_MPX2200AP" H 7892 1266 50  0000 C CNN
F 2 "Connector_PinSocket_2.54mm:PinSocket_1x04_P2.54mm_Vertical" H 8000 1600 50  0001 C CNN
F 3 "~" H 8000 1600 50  0001 C CNN
	1    8000 1600
	-1   0    0    1   
$EndComp
$Comp
L power:-5V #PWR05
U 1 1 6185FE19
P 8700 1900
F 0 "#PWR05" H 8700 2000 50  0001 C CNN
F 1 "-5V" H 8715 2073 50  0000 C CNN
F 2 "" H 8700 1900 50  0001 C CNN
F 3 "" H 8700 1900 50  0001 C CNN
	1    8700 1900
	-1   0    0    1   
$EndComp
Wire Wire Line
	8700 1700 8700 1900
Text GLabel 9200 1600 2    50   Output ~ 0
S+
Text GLabel 9200 1100 2    50   Output ~ 0
S-
$Comp
L power:+5V #PWR04
U 1 1 61860895
P 8700 1400
F 0 "#PWR04" H 8700 1250 50  0001 C CNN
F 1 "+5V" H 8715 1573 50  0000 C CNN
F 2 "" H 8700 1400 50  0001 C CNN
F 3 "" H 8700 1400 50  0001 C CNN
	1    8700 1400
	1    0    0    -1  
$EndComp
Wire Wire Line
	8700 1400 8700 1500
Wire Wire Line
	8700 1500 8200 1500
Wire Wire Line
	8200 1700 8700 1700
$Comp
L Device:R_US R2
U 1 1 61865368
P 8950 1600
F 0 "R2" V 8745 1600 50  0000 C CNN
F 1 "4k" V 8836 1600 50  0000 C CNN
F 2 "Resistor_SMD:R_0805_2012Metric" V 8990 1590 50  0001 C CNN
F 3 "~" H 8950 1600 50  0001 C CNN
	1    8950 1600
	0    1    1    0   
$EndComp
$Comp
L Device:R_US R1
U 1 1 61865935
P 8950 1100
F 0 "R1" V 8745 1100 50  0000 C CNN
F 1 "4k" V 8836 1100 50  0000 C CNN
F 2 "Resistor_SMD:R_0805_2012Metric" V 8990 1090 50  0001 C CNN
F 3 "~" H 8950 1100 50  0001 C CNN
	1    8950 1100
	0    1    1    0   
$EndComp
Wire Wire Line
	9100 1100 9200 1100
Wire Wire Line
	9100 1600 9200 1600
Wire Wire Line
	8800 1600 8200 1600
Wire Wire Line
	8200 1400 8450 1400
Wire Wire Line
	8450 1400 8450 1100
Wire Wire Line
	8450 1100 8800 1100
Text GLabel 1350 5250 0    50   Input ~ 0
S+
Text GLabel 1350 5750 0    50   Input ~ 0
S-
$Comp
L Amplifier_Operational:LM324A U3
U 5 1 6186A918
P 5050 1500
F 0 "U3" H 5008 1546 50  0000 L CNN
F 1 "LM324A" H 5008 1455 50  0000 L CNN
F 2 "Package_DIP:DIP-14_W7.62mm_LongPads" H 5000 1600 50  0001 C CNN
F 3 "http://www.ti.com/lit/ds/symlink/lm2902-n.pdf" H 5100 1700 50  0001 C CNN
	5    5050 1500
	1    0    0    -1  
$EndComp
Wire Wire Line
	4950 1200 4950 1150
Wire Wire Line
	4950 1150 4450 1150
Connection ~ 4450 1150
Wire Wire Line
	4450 1150 4450 1500
$Comp
L Amplifier_Operational:LM324A U3
U 4 1 61870066
P 2050 5500
F 0 "U3" H 2050 5867 50  0000 C CNN
F 1 "LM324A" H 2050 5776 50  0000 C CNN
F 2 "Package_DIP:DIP-14_W7.62mm_LongPads" H 2000 5600 50  0001 C CNN
F 3 "http://www.ti.com/lit/ds/symlink/lm2902-n.pdf" H 2100 5700 50  0001 C CNN
	4    2050 5500
	1    0    0    -1  
$EndComp
$Comp
L Device:R_US R3
U 1 1 61871269
P 950 5900
F 0 "R3" H 1018 5946 50  0000 L CNN
F 1 "680k" H 1018 5855 50  0000 L CNN
F 2 "Resistor_SMD:R_0805_2012Metric" V 990 5890 50  0001 C CNN
F 3 "~" H 950 5900 50  0001 C CNN
	1    950  5900
	1    0    0    -1  
$EndComp
$Comp
L power:GND #PWR06
U 1 1 618727A0
P 950 6250
F 0 "#PWR06" H 950 6000 50  0001 C CNN
F 1 "GND" H 955 6077 50  0000 C CNN
F 2 "" H 950 6250 50  0001 C CNN
F 3 "" H 950 6250 50  0001 C CNN
	1    950  6250
	1    0    0    -1  
$EndComp
Wire Wire Line
	1700 5250 1700 5400
Wire Wire Line
	1700 5400 1750 5400
Wire Wire Line
	1350 5250 1700 5250
Wire Wire Line
	1700 5400 950  5400
Wire Wire Line
	950  5400 950  5750
Connection ~ 1700 5400
Wire Wire Line
	950  6050 950  6250
Wire Wire Line
	1700 5750 1700 5600
Wire Wire Line
	1700 5600 1750 5600
Wire Wire Line
	1350 5750 1700 5750
Wire Wire Line
	4950 1800 4950 1850
Wire Wire Line
	4950 1850 4450 1850
Connection ~ 4450 1850
Wire Wire Line
	4450 1850 4450 1600
$Comp
L Device:R_US R4
U 1 1 6187973B
P 2050 6050
F 0 "R4" V 1845 6050 50  0000 C CNN
F 1 "680k" V 1936 6050 50  0000 C CNN
F 2 "Resistor_SMD:R_0805_2012Metric" V 2090 6040 50  0001 C CNN
F 3 "~" H 2050 6050 50  0001 C CNN
	1    2050 6050
	0    1    1    0   
$EndComp
Wire Wire Line
	2200 6050 2500 6050
Wire Wire Line
	2500 6050 2500 5500
Wire Wire Line
	2500 5500 2350 5500
Wire Wire Line
	1900 6050 1700 6050
Wire Wire Line
	1700 6050 1700 5750
Connection ~ 1700 5750
$Comp
L Amplifier_Operational:LM324A U3
U 1 1 6187BE98
P 2100 4000
F 0 "U3" H 2100 4367 50  0000 C CNN
F 1 "LM324A" H 2100 4276 50  0000 C CNN
F 2 "Package_DIP:DIP-14_W7.62mm_LongPads" H 2050 4100 50  0001 C CNN
F 3 "http://www.ti.com/lit/ds/symlink/lm2902-n.pdf" H 2150 4200 50  0001 C CNN
	1    2100 4000
	1    0    0    -1  
$EndComp
$Comp
L Device:R_US R5
U 1 1 6187D4BC
P 1150 3250
F 0 "R5" V 945 3250 50  0000 C CNN
F 1 "200k" V 1036 3250 50  0000 C CNN
F 2 "Resistor_SMD:R_0805_2012Metric" V 1190 3240 50  0001 C CNN
F 3 "~" H 1150 3250 50  0001 C CNN
	1    1150 3250
	0    1    1    0   
$EndComp
$Comp
L Device:R_US R6
U 1 1 6187E217
P 1150 3750
F 0 "R6" V 945 3750 50  0000 C CNN
F 1 "510k" V 1036 3750 50  0000 C CNN
F 2 "Resistor_SMD:R_0805_2012Metric" V 1190 3740 50  0001 C CNN
F 3 "~" H 1150 3750 50  0001 C CNN
	1    1150 3750
	0    1    1    0   
$EndComp
$Comp
L Device:R_Potentiometer_US RV1
U 1 1 61881443
P 1500 3500
F 0 "RV1" H 1433 3546 50  0000 R CNN
F 1 "100k" H 1433 3455 50  0000 R CNN
F 2 "Connector_JST:JST_EH_B3B-EH-A_1x03_P2.50mm_Vertical" H 1500 3500 50  0001 C CNN
F 3 "~" H 1500 3500 50  0001 C CNN
	1    1500 3500
	1    0    0    -1  
$EndComp
$Comp
L power:+5V #PWR07
U 1 1 6188184E
P 750 3150
F 0 "#PWR07" H 750 3000 50  0001 C CNN
F 1 "+5V" H 765 3323 50  0000 C CNN
F 2 "" H 750 3150 50  0001 C CNN
F 3 "" H 750 3150 50  0001 C CNN
	1    750  3150
	1    0    0    -1  
$EndComp
$Comp
L power:GND #PWR08
U 1 1 61881FFD
P 800 3850
F 0 "#PWR08" H 800 3600 50  0001 C CNN
F 1 "GND" H 805 3677 50  0000 C CNN
F 2 "" H 800 3850 50  0001 C CNN
F 3 "" H 800 3850 50  0001 C CNN
	1    800  3850
	1    0    0    -1  
$EndComp
Wire Wire Line
	750  3150 750  3250
Wire Wire Line
	750  3250 1000 3250
Wire Wire Line
	1000 3750 800  3750
Wire Wire Line
	800  3750 800  3850
Wire Wire Line
	1300 3750 1500 3750
Wire Wire Line
	1500 3750 1500 3650
Wire Wire Line
	1300 3250 1500 3250
Wire Wire Line
	1500 3250 1500 3350
Wire Wire Line
	1650 3500 1700 3500
Wire Wire Line
	1700 3500 1700 3900
Wire Wire Line
	1700 3900 1800 3900
Wire Wire Line
	1800 4100 1700 4100
Wire Wire Line
	1700 4100 1700 4350
Wire Wire Line
	1700 4350 2500 4350
Wire Wire Line
	2500 4350 2500 4000
Wire Wire Line
	2500 4000 2400 4000
$Comp
L Amplifier_Operational:LM324A U3
U 2 1 6189B8E0
P 3950 4000
F 0 "U3" H 3950 3633 50  0000 C CNN
F 1 "LM324A" H 3950 3724 50  0000 C CNN
F 2 "Package_DIP:DIP-14_W7.62mm_LongPads" H 3900 4100 50  0001 C CNN
F 3 "http://www.ti.com/lit/ds/symlink/lm2902-n.pdf" H 4000 4200 50  0001 C CNN
	2    3950 4000
	1    0    0    1   
$EndComp
$Comp
L Amplifier_Operational:LM324A U3
U 3 1 6189E188
P 3950 5500
F 0 "U3" H 3950 5867 50  0000 C CNN
F 1 "LM324A" H 3950 5776 50  0000 C CNN
F 2 "Package_DIP:DIP-14_W7.62mm_LongPads" H 3900 5600 50  0001 C CNN
F 3 "http://www.ti.com/lit/ds/symlink/lm2902-n.pdf" H 4000 5700 50  0001 C CNN
	3    3950 5500
	1    0    0    -1  
$EndComp
Text GLabel 2650 4000 2    50   Output ~ 0
u3_1
Wire Wire Line
	2650 4000 2550 4000
Connection ~ 2500 4000
Text GLabel 2650 5500 2    50   Output ~ 0
u3_14
Wire Wire Line
	2650 5500 2550 5500
Connection ~ 2500 5500
$Comp
L Device:R_US R7
U 1 1 618B6E21
P 3050 3700
F 0 "R7" H 3118 3746 50  0000 L CNN
F 1 "75" H 3118 3655 50  0000 L CNN
F 2 "Resistor_SMD:R_0805_2012Metric" V 3090 3690 50  0001 C CNN
F 3 "~" H 3050 3700 50  0001 C CNN
	1    3050 3700
	1    0    0    -1  
$EndComp
$Comp
L Device:R_US R8
U 1 1 618B7410
P 3050 4100
F 0 "R8" H 3118 4146 50  0000 L CNN
F 1 "10k" H 3118 4055 50  0000 L CNN
F 2 "Resistor_SMD:R_0805_2012Metric" V 3090 4090 50  0001 C CNN
F 3 "~" H 3050 4100 50  0001 C CNN
	1    3050 4100
	1    0    0    -1  
$EndComp
$Comp
L power:GND #PWR09
U 1 1 618B796E
P 3050 4350
F 0 "#PWR09" H 3050 4100 50  0001 C CNN
F 1 "GND" H 3055 4177 50  0000 C CNN
F 2 "" H 3050 4350 50  0001 C CNN
F 3 "" H 3050 4350 50  0001 C CNN
	1    3050 4350
	1    0    0    -1  
$EndComp
Wire Wire Line
	3050 3850 3050 3900
Wire Wire Line
	3050 4250 3050 4350
Wire Wire Line
	3650 3900 3050 3900
Connection ~ 3050 3900
Wire Wire Line
	3050 3900 3050 3950
Wire Wire Line
	2550 4000 2550 3450
Wire Wire Line
	2550 3450 3050 3450
Wire Wire Line
	3050 3450 3050 3550
Connection ~ 2550 4000
Wire Wire Line
	2550 4000 2500 4000
$Comp
L Device:R_US R9
U 1 1 618C769B
P 3050 5400
F 0 "R9" H 3118 5446 50  0000 L CNN
F 1 "75" H 3118 5355 50  0000 L CNN
F 2 "Resistor_SMD:R_0805_2012Metric" V 3090 5390 50  0001 C CNN
F 3 "~" H 3050 5400 50  0001 C CNN
	1    3050 5400
	1    0    0    -1  
$EndComp
$Comp
L Device:R_US R10
U 1 1 618C7A5F
P 3050 5800
F 0 "R10" H 3118 5846 50  0000 L CNN
F 1 "10k" H 3118 5755 50  0000 L CNN
F 2 "Resistor_SMD:R_0805_2012Metric" V 3090 5790 50  0001 C CNN
F 3 "~" H 3050 5800 50  0001 C CNN
	1    3050 5800
	1    0    0    -1  
$EndComp
$Comp
L power:GND #PWR010
U 1 1 618C7A69
P 3050 6050
F 0 "#PWR010" H 3050 5800 50  0001 C CNN
F 1 "GND" H 3055 5877 50  0000 C CNN
F 2 "" H 3050 6050 50  0001 C CNN
F 3 "" H 3050 6050 50  0001 C CNN
	1    3050 6050
	1    0    0    -1  
$EndComp
Wire Wire Line
	3050 5550 3050 5600
Wire Wire Line
	3050 5950 3050 6050
Wire Wire Line
	3650 5600 3050 5600
Connection ~ 3050 5600
Wire Wire Line
	3050 5600 3050 5650
Wire Wire Line
	3050 5150 3050 5250
Wire Wire Line
	3050 5150 2550 5150
Wire Wire Line
	2550 5150 2550 5500
Connection ~ 2550 5500
Wire Wire Line
	2550 5500 2500 5500
Text GLabel 3550 5400 0    50   Input ~ 0
u3_1
Wire Wire Line
	3650 5400 3550 5400
Text GLabel 3550 4100 0    50   Input ~ 0
u3_14
Wire Wire Line
	3650 4100 3550 4100
$Comp
L 4xxx:4001 U4
U 5 1 618D38CF
P 5700 1500
F 0 "U4" H 5930 1546 50  0000 L CNN
F 1 "4001" H 5930 1455 50  0000 L CNN
F 2 "Package_DIP:DIP-14_W7.62mm_LongPads" H 5700 1500 50  0001 C CNN
F 3 "http://www.intersil.com/content/dam/Intersil/documents/cd40/cd4000bms-01bms-02bms-25bms.pdf" H 5700 1500 50  0001 C CNN
	5    5700 1500
	1    0    0    -1  
$EndComp
Wire Wire Line
	5700 950  5700 1000
Wire Wire Line
	5700 950  4950 950 
Wire Wire Line
	4950 950  4950 1150
Connection ~ 4950 1150
$Comp
L power:GND #PWR011
U 1 1 618E7BBD
P 5700 2100
F 0 "#PWR011" H 5700 1850 50  0001 C CNN
F 1 "GND" H 5705 1927 50  0000 C CNN
F 2 "" H 5700 2100 50  0001 C CNN
F 3 "" H 5700 2100 50  0001 C CNN
	1    5700 2100
	1    0    0    -1  
$EndComp
Wire Wire Line
	5700 2000 5700 2050
$Comp
L 4xxx:4001 U4
U 1 1 618EAF8A
P 4700 5500
F 0 "U4" H 4700 5825 50  0000 C CNN
F 1 "4001" H 4700 5734 50  0000 C CNN
F 2 "Package_DIP:DIP-14_W7.62mm_LongPads" H 4700 5500 50  0001 C CNN
F 3 "http://www.intersil.com/content/dam/Intersil/documents/cd40/cd4000bms-01bms-02bms-25bms.pdf" H 4700 5500 50  0001 C CNN
	1    4700 5500
	1    0    0    -1  
$EndComp
$Comp
L 4xxx:4001 U4
U 2 1 618EE316
P 4700 4000
F 0 "U4" H 4700 4325 50  0000 C CNN
F 1 "4001" H 4700 4234 50  0000 C CNN
F 2 "Package_DIP:DIP-14_W7.62mm_LongPads" H 4700 4000 50  0001 C CNN
F 3 "http://www.intersil.com/content/dam/Intersil/documents/cd40/cd4000bms-01bms-02bms-25bms.pdf" H 4700 4000 50  0001 C CNN
	2    4700 4000
	1    0    0    -1  
$EndComp
$Comp
L 4xxx:4001 U4
U 3 1 618EF536
P 5400 4750
F 0 "U4" H 5400 5075 50  0000 C CNN
F 1 "4001" H 5400 4984 50  0000 C CNN
F 2 "Package_DIP:DIP-14_W7.62mm_LongPads" H 5400 4750 50  0001 C CNN
F 3 "http://www.intersil.com/content/dam/Intersil/documents/cd40/cd4000bms-01bms-02bms-25bms.pdf" H 5400 4750 50  0001 C CNN
	3    5400 4750
	1    0    0    -1  
$EndComp
$Comp
L 4xxx:4001 U4
U 4 1 618F30E7
P 6600 1500
F 0 "U4" H 6600 1825 50  0000 C CNN
F 1 "4001" H 6600 1734 50  0000 C CNN
F 2 "Package_DIP:DIP-14_W7.62mm_LongPads" H 6600 1500 50  0001 C CNN
F 3 "http://www.intersil.com/content/dam/Intersil/documents/cd40/cd4000bms-01bms-02bms-25bms.pdf" H 6600 1500 50  0001 C CNN
	4    6600 1500
	1    0    0    -1  
$EndComp
NoConn ~ 6900 1500
Wire Wire Line
	6300 1400 6200 1400
Wire Wire Line
	6200 1400 6200 1600
Wire Wire Line
	6200 1600 6300 1600
Wire Wire Line
	6200 1600 6200 2050
Wire Wire Line
	6200 2050 5700 2050
Connection ~ 6200 1600
Connection ~ 5700 2050
Wire Wire Line
	5700 2050 5700 2100
Wire Wire Line
	4400 3900 4350 3900
Wire Wire Line
	4350 3900 4350 4000
Wire Wire Line
	4350 4100 4400 4100
Wire Wire Line
	4350 4000 4250 4000
Connection ~ 4350 4000
Wire Wire Line
	4350 4000 4350 4100
Wire Wire Line
	4400 5400 4350 5400
Wire Wire Line
	4350 5400 4350 5500
Wire Wire Line
	4350 5600 4400 5600
Wire Wire Line
	4350 5500 4250 5500
Connection ~ 4350 5500
Wire Wire Line
	4350 5500 4350 5600
Wire Wire Line
	5000 5500 5050 5500
Wire Wire Line
	5050 5500 5050 4850
Wire Wire Line
	5050 4850 5100 4850
Wire Wire Line
	5100 4650 5050 4650
Wire Wire Line
	5050 4650 5050 4000
Wire Wire Line
	5050 4000 5000 4000
$Comp
L Device:R_US R11
U 1 1 6191388A
P 5900 4000
F 0 "R11" V 5695 4000 50  0000 C CNN
F 1 "1.5k" V 5786 4000 50  0000 C CNN
F 2 "Resistor_SMD:R_0805_2012Metric" V 5940 3990 50  0001 C CNN
F 3 "~" H 5900 4000 50  0001 C CNN
	1    5900 4000
	0    1    1    0   
$EndComp
$Comp
L Device:R_US R12
U 1 1 61913C2B
P 5900 4750
F 0 "R12" V 5695 4750 50  0000 C CNN
F 1 "1.5k" V 5786 4750 50  0000 C CNN
F 2 "Resistor_SMD:R_0805_2012Metric" V 5940 4740 50  0001 C CNN
F 3 "~" H 5900 4750 50  0001 C CNN
	1    5900 4750
	0    1    1    0   
$EndComp
$Comp
L Device:R_US R13
U 1 1 619141CB
P 5900 5500
F 0 "R13" V 5695 5500 50  0000 C CNN
F 1 "1.5k" V 5786 5500 50  0000 C CNN
F 2 "Resistor_SMD:R_0805_2012Metric" V 5940 5490 50  0001 C CNN
F 3 "~" H 5900 5500 50  0001 C CNN
	1    5900 5500
	0    1    1    0   
$EndComp
$Comp
L Device:LED D1
U 1 1 61915032
P 6250 4000
F 0 "D1" H 6243 3745 50  0000 C CNN
F 1 "LEDRED" H 6243 3836 50  0000 C CNN
F 2 "Connector_PinSocket_2.54mm:PinSocket_1x02_P2.54mm_Vertical" H 6250 4000 50  0001 C CNN
F 3 "~" H 6250 4000 50  0001 C CNN
	1    6250 4000
	-1   0    0    1   
$EndComp
$Comp
L Device:LED D2
U 1 1 619154D1
P 6250 4750
F 0 "D2" H 6243 4495 50  0000 C CNN
F 1 "LEDYEL" H 6243 4586 50  0000 C CNN
F 2 "Connector_PinSocket_2.54mm:PinSocket_1x02_P2.54mm_Vertical" H 6250 4750 50  0001 C CNN
F 3 "~" H 6250 4750 50  0001 C CNN
	1    6250 4750
	-1   0    0    1   
$EndComp
$Comp
L Device:LED D3
U 1 1 61915B45
P 6250 5500
F 0 "D3" H 6243 5245 50  0000 C CNN
F 1 "LEDGRE" H 6243 5336 50  0000 C CNN
F 2 "Connector_PinSocket_2.54mm:PinSocket_1x02_P2.54mm_Vertical" H 6250 5500 50  0001 C CNN
F 3 "~" H 6250 5500 50  0001 C CNN
	1    6250 5500
	-1   0    0    1   
$EndComp
$Comp
L power:-5V #PWR012
U 1 1 619168A5
P 6500 6000
F 0 "#PWR012" H 6500 6100 50  0001 C CNN
F 1 "-5V" H 6515 6173 50  0000 C CNN
F 2 "" H 6500 6000 50  0001 C CNN
F 3 "" H 6500 6000 50  0001 C CNN
	1    6500 6000
	-1   0    0    1   
$EndComp
Wire Wire Line
	6500 6000 6500 5500
Wire Wire Line
	6500 4000 6400 4000
Wire Wire Line
	6400 4750 6500 4750
Connection ~ 6500 4750
Wire Wire Line
	6500 4750 6500 4000
Wire Wire Line
	6400 5500 6500 5500
Connection ~ 6500 5500
Wire Wire Line
	6500 5500 6500 4750
Wire Wire Line
	6050 5500 6100 5500
Wire Wire Line
	6050 4750 6100 4750
Wire Wire Line
	6050 4000 6100 4000
Wire Wire Line
	5750 4000 5050 4000
Connection ~ 5050 4000
Wire Wire Line
	5750 4750 5700 4750
Wire Wire Line
	5750 5500 5050 5500
Connection ~ 5050 5500
$Comp
L Device:LED D6
U 1 1 6197587B
P 10550 3650
F 0 "D6" H 10450 3700 50  0000 C CNN
F 1 "LEDORA" H 10543 3486 50  0001 C CNN
F 2 "Connector_PinSocket_2.54mm:PinSocket_1x02_P2.54mm_Vertical" H 10550 3650 50  0001 C CNN
F 3 "~" H 10550 3650 50  0001 C CNN
	1    10550 3650
	-1   0    0    1   
$EndComp
$Comp
L Device:LED D7
U 1 1 61975CEF
P 10550 3850
F 0 "D7" H 10450 3900 50  0000 C CNN
F 1 "LEDORA" H 10543 3686 50  0001 C CNN
F 2 "Connector_PinSocket_2.54mm:PinSocket_1x02_P2.54mm_Vertical" H 10550 3850 50  0001 C CNN
F 3 "~" H 10550 3850 50  0001 C CNN
	1    10550 3850
	-1   0    0    1   
$EndComp
$Comp
L Device:LED D8
U 1 1 61975EE9
P 10550 4050
F 0 "D8" H 10450 4100 50  0000 C CNN
F 1 "LEDORA" H 10543 3886 50  0001 C CNN
F 2 "Connector_PinSocket_2.54mm:PinSocket_1x02_P2.54mm_Vertical" H 10550 4050 50  0001 C CNN
F 3 "~" H 10550 4050 50  0001 C CNN
	1    10550 4050
	-1   0    0    1   
$EndComp
$Comp
L Device:LED D9
U 1 1 61976104
P 10550 4250
F 0 "D9" H 10450 4300 50  0000 C CNN
F 1 "LEDORA" H 10543 4086 50  0001 C CNN
F 2 "Connector_PinSocket_2.54mm:PinSocket_1x02_P2.54mm_Vertical" H 10550 4250 50  0001 C CNN
F 3 "~" H 10550 4250 50  0001 C CNN
	1    10550 4250
	-1   0    0    1   
$EndComp
$Comp
L Device:LED D10
U 1 1 619762AC
P 10550 4450
F 0 "D10" H 10450 4500 50  0000 C CNN
F 1 "LEDORA" H 10543 4286 50  0001 C CNN
F 2 "Connector_PinSocket_2.54mm:PinSocket_1x02_P2.54mm_Vertical" H 10550 4450 50  0001 C CNN
F 3 "~" H 10550 4450 50  0001 C CNN
	1    10550 4450
	-1   0    0    1   
$EndComp
$Comp
L Device:LED D11
U 1 1 619764A6
P 10550 4650
F 0 "D11" H 10450 4700 50  0000 C CNN
F 1 "LEDORA" H 10543 4486 50  0001 C CNN
F 2 "Connector_PinSocket_2.54mm:PinSocket_1x02_P2.54mm_Vertical" H 10550 4650 50  0001 C CNN
F 3 "~" H 10550 4650 50  0001 C CNN
	1    10550 4650
	-1   0    0    1   
$EndComp
$Comp
L Device:LED D12
U 1 1 6197667E
P 10550 4850
F 0 "D12" H 10450 4900 50  0000 C CNN
F 1 "LEDORA" H 10543 4686 50  0001 C CNN
F 2 "Connector_PinSocket_2.54mm:PinSocket_1x02_P2.54mm_Vertical" H 10550 4850 50  0001 C CNN
F 3 "~" H 10550 4850 50  0001 C CNN
	1    10550 4850
	-1   0    0    1   
$EndComp
$Comp
L Device:LED D13
U 1 1 619769BC
P 10550 5050
F 0 "D13" H 10450 5100 50  0000 C CNN
F 1 "LEDORA" H 10543 4886 50  0001 C CNN
F 2 "Connector_PinSocket_2.54mm:PinSocket_1x02_P2.54mm_Vertical" H 10550 5050 50  0001 C CNN
F 3 "~" H 10550 5050 50  0001 C CNN
	1    10550 5050
	-1   0    0    1   
$EndComp
Connection ~ 10850 3450
Wire Wire Line
	10700 3650 10850 3650
Connection ~ 10850 3650
Wire Wire Line
	10850 3650 10850 3450
Wire Wire Line
	10700 3850 10850 3850
Wire Wire Line
	10850 3850 10850 3650
Wire Wire Line
	10250 3650 10400 3650
Wire Wire Line
	10400 3850 10250 3850
$Comp
L Device:R_Potentiometer_US RV3
U 1 1 619FE678
P 7750 5350
F 0 "RV3" H 7683 5396 50  0000 R CNN
F 1 "100k" H 7683 5305 50  0000 R CNN
F 2 "Connector_JST:JST_EH_B3B-EH-A_1x03_P2.50mm_Vertical" H 7750 5350 50  0001 C CNN
F 3 "~" H 7750 5350 50  0001 C CNN
	1    7750 5350
	1    0    0    -1  
$EndComp
$Comp
L Device:R_US R15
U 1 1 619FF10F
P 7750 4950
F 0 "R15" H 7682 4904 50  0000 R CNN
F 1 "100k" H 7682 4995 50  0000 R CNN
F 2 "Resistor_SMD:R_0805_2012Metric" V 7790 4940 50  0001 C CNN
F 3 "~" H 7750 4950 50  0001 C CNN
	1    7750 4950
	-1   0    0    1   
$EndComp
$Comp
L Device:R_US R16
U 1 1 619FFD3C
P 7750 5750
F 0 "R16" H 7682 5704 50  0000 R CNN
F 1 "10k" H 7682 5795 50  0000 R CNN
F 2 "Resistor_SMD:R_0805_2012Metric" V 7790 5740 50  0001 C CNN
F 3 "~" H 7750 5750 50  0001 C CNN
	1    7750 5750
	-1   0    0    1   
$EndComp
$Comp
L power:GND #PWR017
U 1 1 61A00BF4
P 7750 6000
F 0 "#PWR017" H 7750 5750 50  0001 C CNN
F 1 "GND" H 7755 5827 50  0000 C CNN
F 2 "" H 7750 6000 50  0001 C CNN
F 3 "" H 7750 6000 50  0001 C CNN
	1    7750 6000
	1    0    0    -1  
$EndComp
$Comp
L power:+5V #PWR016
U 1 1 61A0A137
P 7750 4700
F 0 "#PWR016" H 7750 4550 50  0001 C CNN
F 1 "+5V" H 7765 4873 50  0000 C CNN
F 2 "" H 7750 4700 50  0001 C CNN
F 3 "" H 7750 4700 50  0001 C CNN
	1    7750 4700
	1    0    0    -1  
$EndComp
Wire Wire Line
	7750 4700 7750 4800
Wire Wire Line
	7750 5100 7750 5200
Wire Wire Line
	7750 5500 7750 5600
Wire Wire Line
	7750 5900 7750 6000
Text GLabel 8000 5350 2    50   Output ~ 0
RLO
Wire Wire Line
	8000 5350 7900 5350
$Comp
L SparkFun-IC-Special-Function:LM3914N U5
U 1 1 61A5FF08
P 9700 4150
F 0 "U5" H 9700 5410 45  0000 C CNN
F 1 "LM3914N" H 9700 5326 45  0000 C CNN
F 2 "Silicon-Standard:DIL18" H 9700 5250 20  0001 C CNN
F 3 "" H 9700 4150 60  0001 C CNN
F 4 "COM-12694" H 9700 5231 60  0000 C CNN "Field4"
	1    9700 4150
	1    0    0    -1  
$EndComp
Wire Wire Line
	10400 3450 10250 3450
Wire Wire Line
	10700 3450 10850 3450
Wire Wire Line
	10250 3250 10400 3250
Wire Wire Line
	10850 3450 10850 3250
Wire Wire Line
	10850 3250 10850 2850
Connection ~ 10850 3250
Wire Wire Line
	10700 3250 10850 3250
$Comp
L power:+5V #PWR013
U 1 1 61977592
P 10850 2850
F 0 "#PWR013" H 10850 2700 50  0001 C CNN
F 1 "+5V" H 10865 3023 50  0000 C CNN
F 2 "" H 10850 2850 50  0001 C CNN
F 3 "" H 10850 2850 50  0001 C CNN
	1    10850 2850
	1    0    0    -1  
$EndComp
$Comp
L Device:LED D5
U 1 1 61971C70
P 10550 3450
F 0 "D5" H 10450 3500 50  0000 C CNN
F 1 "LEDORA" H 10543 3286 50  0001 C CNN
F 2 "Connector_PinSocket_2.54mm:PinSocket_1x02_P2.54mm_Vertical" H 10550 3450 50  0001 C CNN
F 3 "~" H 10550 3450 50  0001 C CNN
	1    10550 3450
	-1   0    0    1   
$EndComp
$Comp
L Device:LED D4
U 1 1 61970808
P 10550 3250
F 0 "D4" H 10543 2995 50  0000 C CNN
F 1 "LEDORA" H 10543 3086 50  0000 C CNN
F 2 "Connector_PinSocket_2.54mm:PinSocket_1x02_P2.54mm_Vertical" H 10550 3250 50  0001 C CNN
F 3 "~" H 10550 3250 50  0001 C CNN
	1    10550 3250
	-1   0    0    1   
$EndComp
Wire Wire Line
	10850 3850 10850 4050
Wire Wire Line
	10850 5050 10700 5050
Connection ~ 10850 3850
Wire Wire Line
	10700 4850 10850 4850
Connection ~ 10850 4850
Wire Wire Line
	10850 4850 10850 5050
Wire Wire Line
	10700 4650 10850 4650
Connection ~ 10850 4650
Wire Wire Line
	10850 4650 10850 4850
Wire Wire Line
	10700 4450 10850 4450
Connection ~ 10850 4450
Wire Wire Line
	10850 4450 10850 4650
Wire Wire Line
	10700 4250 10850 4250
Connection ~ 10850 4250
Wire Wire Line
	10850 4250 10850 4450
Wire Wire Line
	10700 4050 10850 4050
Connection ~ 10850 4050
Wire Wire Line
	10850 4050 10850 4250
Wire Wire Line
	10400 4050 10250 4050
Wire Wire Line
	10250 4250 10400 4250
Wire Wire Line
	10400 4450 10250 4450
Wire Wire Line
	10250 4650 10400 4650
Wire Wire Line
	10400 4850 10250 4850
Wire Wire Line
	10250 5050 10400 5050
$Comp
L power:+5V #PWR018
U 1 1 61B28C98
P 8700 2850
F 0 "#PWR018" H 8700 2700 50  0001 C CNN
F 1 "+5V" H 8715 3023 50  0000 C CNN
F 2 "" H 8700 2850 50  0001 C CNN
F 3 "" H 8700 2850 50  0001 C CNN
	1    8700 2850
	1    0    0    -1  
$EndComp
Wire Wire Line
	8700 2850 8700 3250
Wire Wire Line
	8700 3250 9150 3250
Text GLabel 9000 4250 0    50   Input ~ 0
RLO
Wire Wire Line
	9000 4250 9150 4250
Wire Wire Line
	9150 3550 9050 3550
Wire Wire Line
	9050 3550 9050 3650
Wire Wire Line
	9050 3750 9150 3750
Text GLabel 9000 3650 0    50   BiDi ~ 0
RHI
Wire Wire Line
	9000 3650 9050 3650
Connection ~ 9050 3650
Wire Wire Line
	9050 3650 9050 3750
Connection ~ 8700 3250
Wire Wire Line
	8700 4550 9150 4550
Wire Wire Line
	8700 3250 8700 4550
$Comp
L power:-5V #PWR019
U 1 1 61B63144
P 9000 5200
F 0 "#PWR019" H 9000 5300 50  0001 C CNN
F 1 "-5V" H 9015 5373 50  0000 C CNN
F 2 "" H 9000 5200 50  0001 C CNN
F 3 "" H 9000 5200 50  0001 C CNN
	1    9000 5200
	-1   0    0    1   
$EndComp
Wire Wire Line
	9150 5050 9000 5050
Wire Wire Line
	9000 5050 9000 5200
Text GLabel 9000 4850 0    50   Input ~ 0
u3_14
Wire Wire Line
	9150 4850 9000 4850
$Comp
L Device:R_Potentiometer_US RV2
U 1 1 61B7A619
P 7750 3500
F 0 "RV2" H 7683 3546 50  0000 R CNN
F 1 "100k" H 7683 3455 50  0000 R CNN
F 2 "Connector_JST:JST_EH_B3B-EH-A_1x03_P2.50mm_Vertical" H 7750 3500 50  0001 C CNN
F 3 "~" H 7750 3500 50  0001 C CNN
	1    7750 3500
	1    0    0    -1  
$EndComp
$Comp
L Device:R_US R14
U 1 1 61B7AF11
P 7750 3100
F 0 "R14" H 7682 3054 50  0000 R CNN
F 1 "100k" H 7682 3145 50  0000 R CNN
F 2 "Resistor_SMD:R_0805_2012Metric" V 7790 3090 50  0001 C CNN
F 3 "~" H 7750 3100 50  0001 C CNN
	1    7750 3100
	-1   0    0    1   
$EndComp
Wire Wire Line
	7750 2850 7750 2950
Wire Wire Line
	7750 3250 7750 3350
Text GLabel 8000 3500 2    50   Output ~ 0
REF
Wire Wire Line
	8000 3500 7950 3500
Text GLabel 9000 3950 0    50   Input ~ 0
REF
Wire Wire Line
	9000 3950 9150 3950
Wire Wire Line
	7750 3650 7750 3700
Wire Wire Line
	7750 3700 7950 3700
Wire Wire Line
	7950 3700 7950 3500
Connection ~ 7950 3500
Wire Wire Line
	7950 3500 7900 3500
$Comp
L power:-5V #PWR015
U 1 1 61B95F37
P 7750 3750
F 0 "#PWR015" H 7750 3850 50  0001 C CNN
F 1 "-5V" H 7765 3923 50  0000 C CNN
F 2 "" H 7750 3750 50  0001 C CNN
F 3 "" H 7750 3750 50  0001 C CNN
	1    7750 3750
	-1   0    0    1   
$EndComp
Wire Wire Line
	7750 3750 7750 3700
Connection ~ 7750 3700
Wire Notes Line
	7250 2250 10500 2250
Wire Notes Line
	7250 1000 7250 6000
Wire Notes Line
	7250 2750 1000 2750
Text Notes 2100 2250 0    50   ~ 0
5-12volts input\nPower DCDC  +/- 5Volts
Text Notes 3900 6500 0    50   ~ 0
Determinate trend display
Text Notes 1500 6700 0    50   ~ 0
compare pressure \nfor led bargraph
Text Notes 9000 6000 0    50   ~ 0
Led bargraph \nand adjustements
Text Notes 10000 1500 0    50   ~ 0
pressure\nsensor\nconnector\n
$Comp
L power:PWR_FLAG #FLG0101
U 1 1 61BD9907
P 3950 1050
F 0 "#FLG0101" H 3950 1125 50  0001 C CNN
F 1 "PWR_FLAG" V 3950 1177 50  0000 L CNN
F 2 "" H 3950 1050 50  0001 C CNN
F 3 "~" H 3950 1050 50  0001 C CNN
	1    3950 1050
	0    -1   -1   0   
$EndComp
Connection ~ 3950 1050
Wire Wire Line
	3950 1050 3950 1500
$Comp
L power:PWR_FLAG #FLG0102
U 1 1 61BD9C94
P 3950 1950
F 0 "#FLG0102" H 3950 2025 50  0001 C CNN
F 1 "PWR_FLAG" V 3950 2077 50  0000 L CNN
F 2 "" H 3950 1950 50  0001 C CNN
F 3 "~" H 3950 1950 50  0001 C CNN
	1    3950 1950
	0    -1   -1   0   
$EndComp
Connection ~ 3950 1950
Wire Wire Line
	3950 1950 3950 2000
Text GLabel 7800 2850 2    50   BiDi ~ 0
RHI
Wire Wire Line
	7800 2850 7750 2850
$Comp
L power:PWR_FLAG #FLG0103
U 1 1 61BF71F6
P 1450 1900
F 0 "#FLG0103" H 1450 1975 50  0001 C CNN
F 1 "PWR_FLAG" V 1450 2028 50  0000 L CNN
F 2 "" H 1450 1900 50  0001 C CNN
F 3 "~" H 1450 1900 50  0001 C CNN
	1    1450 1900
	0    1    1    0   
$EndComp
Connection ~ 1450 1900
Wire Wire Line
	1450 1900 1450 2000
Text Notes 10350 5250 0    50   ~ 0
ORANGE LEDS\n
Text Notes 6650 4750 0    50   ~ 0
stable\natmospheric\npressure\n
$EndSCHEMATC
